<?xml version="1.0" encoding="utf-8"?>
<!-- Generator: Adobe Illustrator 22.0.1, SVG Export Plug-In . SVG Version: 6.00 Build 0)  -->
<svg version="1.1" id="Layer_1" xmlns="http://www.w3.org/2000/svg" xmlns:xlink="http://www.w3.org/1999/xlink" x="0px" y="0px"
	 viewBox="0 0 70.9 70.9" style="enable-background:new 0 0 70.9 70.9;" xml:space="preserve">
<style type="text/css">
	.st0{fill:none;stroke:#FFFFFF;stroke-width:0.75;stroke-miterlimit:10;}
	.st1{fill:none;stroke:#FFFFFF;stroke-width:0.75;stroke-linecap:round;stroke-miterlimit:10;}
</style>
<g>
	<g>
		<circle class="st0" cx="35.4" cy="35.4" r="32.3"/>
	</g>
</g>
<path class="st0" d="M46.7,28c0,2-1.8,3.6-4,3.6s-4-1.6-4-3.6c0-0.2,0-0.3,0-0.5c0-0.1,0-0.2,0.1-0.3l0.3-0.8l3.6-9.2l3.6,9.2
	l0.3,0.8c0,0.1,0,0.2,0.1,0.3C46.7,27.7,46.7,27.8,46.7,28z"/>
<g>
	<path class="st1" d="M27.9,36.7l10.6,3.6c0.7,0.2,1.5,0.2,2.1,0c0.7-0.3,1.3-0.8,1.5-1.5c0.1-0.5,0.1-1,0-1.4
		c-0.2-0.6-0.5-1.1-1.4-1.7c-1.3-0.6-3.8-1.4-5-1.8c-3.8-1.5-6.8-4.4-12.4-2.7c-1.6,0.5-3.3,1.4-4.7,2.2c-0.7,0.4-3,1.6-5.6,2.6
		c-0.5,0.2-0.9,0.7-0.9,1.3V45c0,1,1,1.7,1.9,1.3c2-0.8,4.2-1.3,6.6-1.2c3.7,0.2,11.6,5.2,14.5,4.1c12.1-4.2,15.2-4.4,16.6-6.4
		c3.9-5.6,7.1-9.5,5.4-11c-1.5-1.3-2.6,0.7-3.4,0.5c-0.6-0.3-1.3-0.2-1.9,0c-0.5,0.3-1.4,0.9-2.3,1.8c-1.5,1.5-1.8,1.7-2.7,2.1
		C46,36.4,44,37,42.2,37.6"/>
</g>
</svg>
