<?xml version="1.0" encoding="utf-8"?>
<!-- Generator: Adobe Illustrator 17.0.0, SVG Export Plug-In . SVG Version: 6.00 Build 0)  -->
<!DOCTYPE svg PUBLIC "-//W3C//DTD SVG 1.1//EN" "http://www.w3.org/Graphics/SVG/1.1/DTD/svg11.dtd">
<svg version="1.1" id="Forma_1_1_" xmlns="http://www.w3.org/2000/svg" xmlns:xlink="http://www.w3.org/1999/xlink" x="0px" y="0px"
	 width="40px" height="28px" viewBox="0 0 40 28" enable-background="new 0 0 40 28" xml:space="preserve">
<g id="Forma_1">
	<g>
		<path fill-rule="evenodd" clip-rule="evenodd" d="M31.673,0.208l-2.005,1.949c0,0-0.671-0.15-1.137-0.375l-3.141-1.513
			c-0.382-0.183-0.852-0.272-1.331-0.272c-0.69,0-1.4,0.184-1.898,0.533l-4.859,3.374c-0.844,0.592-1.031,1.748-0.415,2.571
			l0.288,0.385c0.395,0.527,1.042,0.815,1.688,0.815c0.364,0,0.727-0.09,1.046-0.281l2.305-1.457
			c0.408-0.244,0.925-0.363,1.449-0.363c0.614,0,1.235,0.166,1.689,0.489l3.346,3.036c0.84,0.598,2.147,1.66,2.906,2.356
			l3.039,2.796l5.359-6.148L31.673,0.208z M28.621,11.826c-0.442-0.354-1.427-1.102-1.427-1.102l-3.188-2.891
			c-0.067-0.024-0.191-0.054-0.344-0.054c-0.159,0-0.264,0.032-0.291,0.043L21.06,9.281c-0.656,0.392-1.416,0.598-2.196,0.598
			c-1.376,0-2.676-0.637-3.478-1.708l-0.287-0.383c-0.659-0.88-0.925-1.957-0.751-3.036c0.174-1.077,0.767-2.02,1.676-2.655
			l0.523-0.363c-0.755-0.091-1.592-0.011-2.205,0.248c0,0-1.027,0.446-1.356,0.585c-0.763,0.32-1.833,0.315-1.833,0.315L8.642,0.566
			l-8.645,8.503l3.251,3.237l0.738-0.766c0.77-0.8,1.854-1.259,2.974-1.259c1.062,0,2.07,0.399,2.836,1.122l0.35,0.33
			c0.45,0.426,0.782,0.927,0.995,1.468c0.672,0.171,1.291,0.508,1.805,0.994l0.348,0.329c0.793,0.747,1.246,1.758,1.273,2.846
			c0.241,0.146,0.469,0.32,0.677,0.518l0.352,0.332c0.493,0.465,0.844,1.023,1.05,1.622c0.623,0.18,1.197,0.504,1.676,0.956
			l0.356,0.335c1.431,1.352,1.659,3.49,0.655,5.092l0.267,0.247c0.758,0.697,1.954,0.656,2.659-0.096l0.329-0.352
			c0.69-0.735,0.655-1.881-0.06-2.582l2.439,2.24c0.759,0.696,1.955,0.653,2.66-0.099l0.329-0.35c0.7-0.746,0.659-1.92-0.087-2.619
			l0.627,0.577c0.758,0.698,1.954,0.653,2.658-0.097l0.33-0.351c0.704-0.752,0.659-1.936-0.098-2.634l-0.529-0.486
			c0.761,0.657,1.924,0.607,2.615-0.129l0.331-0.353c0.704-0.752,0.661-1.937-0.098-2.633L28.621,11.826z M16.789,22.397
			c-0.363-0.342-0.831-0.513-1.298-0.513c-0.496,0-0.993,0.193-1.361,0.575l-0.006-0.011c0.713-0.741,0.685-1.926-0.064-2.633
			l-0.351-0.331c-0.362-0.34-0.824-0.51-1.289-0.51c-0.47,0-0.938,0.173-1.301,0.513l0.705-0.731
			c0.714-0.741,0.687-1.927-0.063-2.634l-0.351-0.332c-0.362-0.342-0.828-0.51-1.293-0.51c-0.483,0-0.965,0.182-1.331,0.542
			c0.588-0.744,0.529-1.826-0.175-2.492L8.259,13c-0.363-0.342-0.832-0.513-1.299-0.513c-0.498,0-0.994,0.193-1.362,0.576
			l-3.533,3.668c-0.714,0.741-0.685,1.926,0.065,2.632l0.349,0.331c0.361,0.34,0.824,0.506,1.287,0.506
			c0.427,0,0.853-0.142,1.2-0.423l-0.931,0.966c-0.713,0.741-0.685,1.926,0.063,2.633l0.353,0.332
			c0.363,0.342,0.831,0.513,1.297,0.513c0.498,0,0.993-0.193,1.362-0.576l0.727-0.755c-0.647,0.744-0.604,1.875,0.122,2.559
			l0.353,0.331c0.362,0.341,0.831,0.511,1.298,0.511c0.497,0,0.993-0.193,1.361-0.575l1.168-1.197
			c-0.714,0.742-0.687,1.927,0.063,2.634l0.352,0.332c0.362,0.342,0.829,0.512,1.297,0.512c0.497,0,0.993-0.193,1.361-0.575
			l1.991-2.066c0.714-0.739,0.685-1.924-0.063-2.631L16.789,22.397z"/>
	</g>
</g>
</svg>
