<?xml version="1.0" encoding="utf-8"?>
<!-- Generator: Adobe Illustrator 17.0.0, SVG Export Plug-In . SVG Version: 6.00 Build 0)  -->
<!DOCTYPE svg PUBLIC "-//W3C//DTD SVG 1.1//EN" "http://www.w3.org/Graphics/SVG/1.1/DTD/svg11.dtd">
<svg version="1.1" id="Forma_1_1_" xmlns="http://www.w3.org/2000/svg" xmlns:xlink="http://www.w3.org/1999/xlink" x="0px" y="0px"
	 width="87px" height="78px" viewBox="0 0 87 78" enable-background="new 0 0 87 78" xml:space="preserve">
<g id="Forma_1">
	<g>
		<path fill-rule="evenodd" clip-rule="evenodd" d="M86.336,36.081L70.282,22.304c0.019-0.095,0.038-0.189,0.056-0.302V3.984
			c-0.019-1.075-0.863-1.941-1.932-1.979h-8.964c-1.031,0-1.875,0.924-1.875,1.979v7.464L44.721,0.44
			c-0.694-0.603-1.725-0.603-2.438,0L0.668,36.063c-0.806,0.66-0.9,1.847-0.244,2.658c0.656,0.81,1.838,0.905,2.644,0.245
			c0.019-0.019,0.019-0.019,0.038-0.038L43.502,4.361l14.459,12.383l8.646,7.389l17.31,14.814c0.788,0.679,1.969,0.585,2.644-0.207
			C87.217,37.948,87.123,36.76,86.336,36.081z M66.569,19.119l-5.251-4.448V5.793h5.251V19.119z M72.795,35.365L44.721,11.259
			c-0.694-0.603-1.725-0.603-2.438,0L14.208,35.365l-5.27,4.524c-0.788,0.679-0.881,1.866-0.206,2.658
			c0.656,0.791,1.819,0.886,2.588,0.226l0.019-0.019l2.344-2.035v35.34c0.019,1.055,0.882,1.922,1.932,1.941H71.37
			c1.05-0.019,1.913-0.867,1.932-1.941v-35.34l2.344,2.035c0.337,0.283,0.75,0.453,1.2,0.453c0.544,0,1.069-0.245,1.425-0.66
			c0.694-0.81,0.581-1.998-0.206-2.658L72.795,35.365z M51.003,74.211H36V53.855h15.003V74.211z M69.57,74.211H54.754V52.027
			c0-1.037-0.769-1.942-1.8-1.942H34.05c-1.032,0-1.8,0.904-1.8,1.942v22.184H17.434V37.495l26.068-22.316L69.57,37.495V74.211z"/>
	</g>
</g>
</svg>
