<?xml version="1.0" encoding="utf-8"?>
<!-- Generator: Adobe Illustrator 22.0.1, SVG Export Plug-In . SVG Version: 6.00 Build 0)  -->
<svg version="1.1" id="Layer_1" xmlns="http://www.w3.org/2000/svg" xmlns:xlink="http://www.w3.org/1999/xlink" x="0px" y="0px"
	 viewBox="0 0 70.9 70.9" style="enable-background:new 0 0 70.9 70.9;" xml:space="preserve">
<style type="text/css">
	.st0{fill:none;stroke:#FFFFFF;stroke-width:0.75;stroke-miterlimit:10;}
</style>
<g>
	<g>
		<circle class="st0" cx="35.8" cy="35.2" r="32.3"/>
	</g>
</g>
<g>
	<circle class="st0" cx="35.8" cy="20.6" r="6.1"/>
	<path class="st0" d="M31.9,25.2l-10.5,8.9c-1,0.9-1.2,2.4-0.3,3.4c0.9,1,2.4,1.2,3.4,0.3l4.7-4V34v5l-5.4,3.9c0,0-2.2,2.9,0.2,5.4
		c2.3,2.6,6.2,7,6.2,7s1.5,1.3,3,0.2c1.5-1.2,0.4-3.5,0.4-3.5l-4.3-5l3.5-2.5h0.4h5.2h0.4l3.5,2.5L38,52c0,0-1.2,2.3,0.4,3.5
		c1.5,1.2,3-0.2,3-0.2s3.9-4.5,6.2-7c2.3-2.6,0.2-5.4,0.2-5.4L42.3,39v-5v-0.1l4.7,4c1,0.9,2.6,0.7,3.4-0.3c0.9-1,0.7-2.6-0.3-3.4
		l-10.5-8.9"/>
	<line class="st0" x1="29.3" y1="37.1" x2="42.2" y2="37.1"/>
	<g>
		<path class="st0" d="M29.6,37.1h2.9c0.6,0,1.1,0.5,1.1,1.1l0,0c0,0.6-0.5,1.1-1.1,1.1h-3.7"/>
		<path class="st0" d="M41.9,37.1H39c-0.6,0-1.1,0.5-1.1,1.1l0,0c0,0.6,0.5,1.1,1.1,1.1h3.7"/>
	</g>
	<g>
		<line class="st0" x1="32.4" y1="44.7" x2="29.2" y2="39.4"/>
		<line class="st0" x1="39.2" y1="44.7" x2="42.4" y2="39.4"/>
	</g>
</g>
</svg>
