<?xml version="1.0" encoding="utf-8"?>
<!-- Generator: Adobe Illustrator 22.0.1, SVG Export Plug-In . SVG Version: 6.00 Build 0)  -->
<svg version="1.1" id="Layer_1" xmlns="http://www.w3.org/2000/svg" xmlns:xlink="http://www.w3.org/1999/xlink" x="0px" y="0px"
	 viewBox="0 0 71.3 71.7" style="enable-background:new 0 0 71.3 71.7;" xml:space="preserve">
<style type="text/css">
	.st0{fill:none;stroke:#FFFFFF;stroke-width:0.75;stroke-miterlimit:10;}
	.st1{fill:none;stroke:#FFFFFF;stroke-width:0.75;stroke-linecap:round;stroke-linejoin:round;stroke-miterlimit:10;}
</style>
<g>
	<g>
		<circle class="st0" cx="36" cy="34.6" r="32.3"/>
	</g>
</g>
<g>
	<g>
		<g>
			<path class="st0" d="M53.5,49.9h-5.6h-0.1l-4,0.6H30c-1,0-1.9-0.3-2.7-0.9l0,0l-2-1.4l-0.9-0.6l0,0l-0.6-0.4L19,43.8
				c-0.3-0.3-0.5-0.6-0.6-1c0-0.4,0.1-0.8,0.3-1.2c0.3-0.4,0.7-0.6,1.2-0.6c0.4,0,0.7,0.1,1,0.4c0,0,0,0,0.1,0l2.1,1.3l0.7,0.4
				l0.7,0.5l4.9,3.2l0,0c0.1,0.1,0.2,0.1,0.3,0.1l0,0h9.2c0.1,0,0.3,0,0.4-0.1c0.7-0.2,1.2-0.8,1.2-1.5c0-0.4-0.2-0.8-0.5-1.2
				c-0.3-0.3-0.7-0.5-1.2-0.5h-4.4c-0.5,0-0.9-0.2-1.2-0.5s-0.5-0.8-0.5-1.2c0-0.9,0.8-1.7,1.7-1.7c1.4,0,4.1,0,5.9,0
				c0.1,0,0.1,0,0.2,0c0.2,0,0.4,0,0.5,0c0.4,0,0.6,0,0.7,0c0.1,0,0.1,0,0.2,0H42c0.6,0,1.4,0.1,2.1,0.4c1.3,0.6,2.4,1.8,3.1,3.7
				c0.1,0.2,0.3,0.4,0.6,0.4h5.5v5.2H53.5z"/>
		</g>
		<path class="st1" d="M23.8,43.2c0,0,0.6-3.3,2.6-4s6.3-2.3,6.6-5.1c0,0,0.3,2.6,2,3.3s4.4,1.3,5,2.7"/>
	</g>
	<g>
		<path class="st1" d="M42.7,18.7v7.9c0,3.1-2.6,5.7-5.7,5.7h-8c-3.1,0-5.7-2.6-5.7-5.7v-7.9C23.3,18.7,42.7,18.7,42.7,18.7z"/>
		<path class="st1" d="M36.8,32.5L36.8,32.5c0,0.7-0.6,1.2-1.2,1.2h-5.1c-0.7,0-1.2-0.6-1.2-1.2l0,0"/>
		<g>
			<path class="st1" d="M35.9,29.7V24c0-1.6-1.3-3-3-3l0,0c-1.6,0-3,1.3-3,3v5.7H35.9z"/>
			<path class="st1" d="M30.2,25c0,0,1.4-0.3,2.7,0.9c1.3,1.2,3,0.6,3,0.6"/>
		</g>
	</g>
</g>
</svg>
